%YAML 1.1
%TAG !u! tag:unity3d.com,2011:
--- !u!74 &7400000
AnimationClip:
  m_ObjectHideFlags: 0
  m_CorrespondingSourceObject: {fileID: 0}
  m_PrefabInstance: {fileID: 0}
  m_PrefabAsset: {fileID: 0}
  m_Name: WalkBack
  serializedVersion: 7
  m_Legacy: 0
  m_Compressed: 0
  m_UseHighQualityCurve: 1
  m_RotationCurves: []
  m_CompressedRotationCurves: []
  m_EulerCurves: []
  m_PositionCurves: []
  m_ScaleCurves: []
  m_FloatCurves: []
  m_PPtrCurves:
  - serializedVersion: 2
    curve:
    - time: 0
      value: {fileID: 937905031, guid: 229fc8e4d93d04540a0e62f42ce28093, type: 3}
    - time: 0.1
      value: {fileID: 1561400947, guid: 229fc8e4d93d04540a0e62f42ce28093, type: 3}
    - time: 0.2
      value: {fileID: 1627968477, guid: 229fc8e4d93d04540a0e62f42ce28093, type: 3}
    - time: 0.3
      value: {fileID: 697361086, guid: 229fc8e4d93d04540a0e62f42ce28093, type: 3}
    - time: 0.4
      value: {fileID: -2018087204, guid: 229fc8e4d93d04540a0e62f42ce28093, type: 3}
    - time: 0.5
      value: {fileID: 901571165, guid: 229fc8e4d93d04540a0e62f42ce28093, type: 3}
    attribute: m_Sprite
    path: Body/idleAnimation_0
    classID: 212
    script: {fileID: 0}
    flags: 2
  m_SampleRate: 60
  m_WrapMode: 0
  m_Bounds:
    m_Center: {x: 0, y: 0, z: 0}
    m_Extent: {x: 0, y: 0, z: 0}
  m_ClipBindingConstant:
    genericBindings:
    - serializedVersion: 2
      path: 1570848722
      attribute: 0
      script: {fileID: 0}
      typeID: 212
      customType: 23
      isPPtrCurve: 1
      isIntCurve: 0
      isSerializeReferenceCurve: 0
    pptrCurveMapping:
    - {fileID: 937905031, guid: 229fc8e4d93d04540a0e62f42ce28093, type: 3}
    - {fileID: 1561400947, guid: 229fc8e4d93d04540a0e62f42ce28093, type: 3}
    - {fileID: 1627968477, guid: 229fc8e4d93d04540a0e62f42ce28093, type: 3}
    - {fileID: 697361086, guid: 229fc8e4d93d04540a0e62f42ce28093, type: 3}
    - {fileID: -2018087204, guid: 229fc8e4d93d04540a0e62f42ce28093, type: 3}
    - {fileID: 901571165, guid: 229fc8e4d93d04540a0e62f42ce28093, type: 3}
  m_AnimationClipSettings:
    serializedVersion: 2
    m_AdditiveReferencePoseClip: {fileID: 0}
    m_AdditiveReferencePoseTime: 0
    m_StartTime: 0
    m_StopTime: 0.51666665
    m_OrientationOffsetY: 0
    m_Level: 0
    m_CycleOffset: 0
    m_HasAdditiveReferencePose: 0
    m_LoopTime: 1
    m_LoopBlend: 0
    m_LoopBlendOrientation: 0
    m_LoopBlendPositionY: 0
    m_LoopBlendPositionXZ: 0
    m_KeepOriginalOrientation: 0
    m_KeepOriginalPositionY: 1
    m_KeepOriginalPositionXZ: 0
    m_HeightFromFeet: 0
    m_Mirror: 0
  m_EditorCurves: []
  m_EulerEditorCurves: []
  m_HasGenericRootTransform: 0
  m_HasMotionFloatCurves: 0
  m_Events: []
